\relax 
\providecommand\hyper@newdestlabel[2]{}
\@nameuse{bbl@beforestart}
\providecommand\HyperFirstAtBeginDocument{\AtBeginDocument}
\HyperFirstAtBeginDocument{\ifx\hyper@anchor\@undefined
\global\let\oldcontentsline\contentsline
\gdef\contentsline#1#2#3#4{\oldcontentsline{#1}{#2}{#3}}
\global\let\oldnewlabel\newlabel
\gdef\newlabel#1#2{\newlabelxx{#1}#2}
\gdef\newlabelxx#1#2#3#4#5#6{\oldnewlabel{#1}{{#2}{#3}}}
\AtEndDocument{\ifx\hyper@anchor\@undefined
\let\contentsline\oldcontentsline
\let\newlabel\oldnewlabel
\fi}
\fi}
\global\let\hyper@last\relax 
\gdef\HyperFirstAtBeginDocument#1{#1}
\providecommand\HyField@AuxAddToFields[1]{}
\providecommand\HyField@AuxAddToCoFields[2]{}
\babel@aux{english}{}
\newlabel{index::doc}{{}{1}{}{section*.2}{}}
\@writefile{lof}{\contentsline {figure}{\numberline {1}{\ignorespaces FIGURE 1: The map of the island Rossumøya has 4 types of landscapes}}{1}{figure.0.1}\protected@file@percent }
\newlabel{index:id1}{{1}{1}{FIGURE 1: The map of the island Rossumøya has 4 types of landscapes}{figure.0.1}{}}
\@writefile{toc}{\contentsline {chapter}{\numberline {1}Simulation and Island}{3}{chapter.1}\protected@file@percent }
\@writefile{lof}{\addvspace {10\p@ }}
\@writefile{lot}{\addvspace {10\p@ }}
\newlabel{simulation_and_island:simulation-and-island}{{1}{3}{Simulation and Island}{chapter.1}{}}
\newlabel{simulation_and_island::doc}{{1}{3}{Simulation and Island}{chapter.1}{}}
\@writefile{toc}{\contentsline {section}{\numberline {1.1}Examples}{3}{section.1.1}\protected@file@percent }
\newlabel{simulation_and_island:examples}{{1.1}{3}{Examples}{section.1.1}{}}
\@writefile{toc}{\contentsline {section}{\numberline {1.2}The simulation module}{5}{section.1.2}\protected@file@percent }
\newlabel{simulation_and_island:module-biosim.simulation}{{1.2}{5}{The simulation module}{section.1.2}{}}
\newlabel{simulation_and_island:the-simulation-module}{{1.2}{5}{The simulation module}{section.1.2}{}}
\newlabel{simulation_and_island:biosim.simulation.BioSim}{{1.2}{5}{The simulation module}{section*.3}{}}
\newlabel{simulation_and_island:biosim.simulation.BioSim.island}{{1.2}{5}{The simulation module}{section*.4}{}}
\newlabel{simulation_and_island:biosim.simulation.BioSim.geogr}{{1.2}{5}{The simulation module}{section*.5}{}}
\newlabel{simulation_and_island:biosim.simulation.BioSim.geogr_array}{{1.2}{5}{The simulation module}{section*.6}{}}
\newlabel{simulation_and_island:biosim.simulation.BioSim.years_simulated}{{1.2}{5}{The simulation module}{section*.7}{}}
\newlabel{simulation_and_island:biosim.simulation.BioSim.final_year}{{1.2}{5}{The simulation module}{section*.8}{}}
\newlabel{simulation_and_island:biosim.simulation.BioSim._num_img}{{1.2}{6}{The simulation module}{section*.9}{}}
\newlabel{simulation_and_island:biosim.simulation.BioSim._img_base}{{1.2}{6}{The simulation module}{section*.10}{}}
\newlabel{simulation_and_island:biosim.simulation.BioSim._img_ctr}{{1.2}{6}{The simulation module}{section*.11}{}}
\newlabel{simulation_and_island:biosim.simulation.BioSim._fig}{{1.2}{6}{The simulation module}{section*.12}{}}
\newlabel{simulation_and_island:biosim.simulation.BioSim._map_ax}{{1.2}{6}{The simulation module}{section*.13}{}}
\newlabel{simulation_and_island:biosim.simulation.BioSim._animal_line_ax}{{1.2}{6}{The simulation module}{section*.14}{}}
\newlabel{simulation_and_island:biosim.simulation.BioSim._herbi_line_plot}{{1.2}{6}{The simulation module}{section*.15}{}}
\newlabel{simulation_and_island:biosim.simulation.BioSim._carni_line_plot}{{1.2}{6}{The simulation module}{section*.16}{}}
\newlabel{simulation_and_island:biosim.simulation.BioSim._heatmap_herb_ax}{{1.2}{6}{The simulation module}{section*.17}{}}
\newlabel{simulation_and_island:biosim.simulation.BioSim._heatmap_carn_ax}{{1.2}{6}{The simulation module}{section*.18}{}}
\newlabel{simulation_and_island:biosim.simulation.BioSim._hist_fitness_ax}{{1.2}{6}{The simulation module}{section*.19}{}}
\newlabel{simulation_and_island:biosim.simulation.BioSim._hist_age_ax}{{1.2}{6}{The simulation module}{section*.20}{}}
\newlabel{simulation_and_island:biosim.simulation.BioSim._hist_weight_ax}{{1.2}{6}{The simulation module}{section*.21}{}}
\newlabel{simulation_and_island:biosim.simulation.BioSim.add_population}{{1.2}{6}{The simulation module}{section*.22}{}}
\newlabel{simulation_and_island:biosim.simulation.BioSim.animal_features_per_species}{{1.2}{7}{The simulation module}{section*.23}{}}
\newlabel{simulation_and_island:biosim.simulation.BioSim.carn_spread}{{1.2}{7}{The simulation module}{section*.24}{}}
\newlabel{simulation_and_island:biosim.simulation.BioSim.create_animal_lines}{{1.2}{7}{The simulation module}{section*.25}{}}
\newlabel{simulation_and_island:biosim.simulation.BioSim.create_hists}{{1.2}{7}{The simulation module}{section*.26}{}}
\newlabel{simulation_and_island:biosim.simulation.BioSim.create_map}{{1.2}{7}{The simulation module}{section*.27}{}}
\newlabel{simulation_and_island:biosim.simulation.BioSim.herb_spread}{{1.2}{7}{The simulation module}{section*.28}{}}
\newlabel{simulation_and_island:biosim.simulation.BioSim.make_movie}{{1.2}{7}{The simulation module}{section*.29}{}}
\newlabel{simulation_and_island:biosim.simulation.BioSim.num_animals}{{1.2}{7}{The simulation module}{section*.30}{}}
\newlabel{simulation_and_island:biosim.simulation.BioSim.num_animals_per_species}{{1.2}{7}{The simulation module}{section*.31}{}}
\newlabel{simulation_and_island:biosim.simulation.BioSim.save_graphics}{{1.2}{7}{The simulation module}{section*.32}{}}
\newlabel{simulation_and_island:biosim.simulation.BioSim.set_animal_parameters}{{1.2}{7}{The simulation module}{section*.33}{}}
\newlabel{simulation_and_island:biosim.simulation.BioSim.set_landscape_parameters}{{1.2}{8}{The simulation module}{section*.34}{}}
\newlabel{simulation_and_island:biosim.simulation.BioSim.setup_graphics}{{1.2}{8}{The simulation module}{section*.35}{}}
\newlabel{simulation_and_island:biosim.simulation.BioSim.simulate}{{1.2}{8}{The simulation module}{section*.36}{}}
\newlabel{simulation_and_island:biosim.simulation.BioSim.update_heatmaps}{{1.2}{8}{The simulation module}{section*.37}{}}
\newlabel{simulation_and_island:biosim.simulation.BioSim.update_hists}{{1.2}{8}{The simulation module}{section*.38}{}}
\newlabel{simulation_and_island:biosim.simulation.BioSim.update_linegraph}{{1.2}{8}{The simulation module}{section*.39}{}}
\newlabel{simulation_and_island:biosim.simulation.BioSim.year}{{1.2}{8}{The simulation module}{section*.40}{}}
\@writefile{toc}{\contentsline {section}{\numberline {1.3}The island module}{8}{section.1.3}\protected@file@percent }
\newlabel{simulation_and_island:module-biosim.island}{{1.3}{8}{The island module}{section.1.3}{}}
\newlabel{simulation_and_island:the-island-module}{{1.3}{8}{The island module}{section.1.3}{}}
\newlabel{simulation_and_island:biosim.island.Island}{{1.3}{8}{The island module}{section*.41}{}}
\newlabel{simulation_and_island:biosim.island.Island.islandmap}{{1.3}{9}{The island module}{section*.42}{}}
\newlabel{simulation_and_island:biosim.island.Island.geography}{{1.3}{9}{The island module}{section*.43}{}}
\newlabel{simulation_and_island:biosim.island.Island.population}{{1.3}{9}{The island module}{section*.44}{}}
\newlabel{simulation_and_island:biosim.island.Island.geogr}{{1.3}{9}{The island module}{section*.45}{}}
\newlabel{simulation_and_island:biosim.island.Island.df}{{1.3}{9}{The island module}{section*.46}{}}
\newlabel{simulation_and_island:biosim.island.Island.keys_total}{{1.3}{9}{The island module}{section*.47}{}}
\newlabel{simulation_and_island:biosim.island.Island.add_population}{{1.3}{9}{The island module}{section*.48}{}}
\newlabel{simulation_and_island:biosim.island.Island.assign_location}{{1.3}{9}{The island module}{section*.49}{}}
\newlabel{simulation_and_island:biosim.island.Island.convert_pop_to_dict}{{1.3}{9}{The island module}{section*.50}{}}
\newlabel{simulation_and_island:biosim.island.Island.create_islandmap}{{1.3}{10}{The island module}{section*.51}{}}
\newlabel{simulation_and_island:biosim.island.Island.preprocess_map}{{1.3}{10}{The island module}{section*.52}{}}
\newlabel{simulation_and_island:biosim.island.Island.preprocess_map_dict}{{1.3}{10}{The island module}{section*.53}{}}
\newlabel{simulation_and_island:biosim.island.Island.run_one_season}{{1.3}{10}{The island module}{section*.54}{}}
\@writefile{toc}{\contentsline {chapter}{\numberline {2}Landscape and Animals}{11}{chapter.2}\protected@file@percent }
\@writefile{lof}{\addvspace {10\p@ }}
\@writefile{lot}{\addvspace {10\p@ }}
\newlabel{landscape_and_animals:landscape-and-animals}{{2}{11}{Landscape and Animals}{chapter.2}{}}
\newlabel{landscape_and_animals::doc}{{2}{11}{Landscape and Animals}{chapter.2}{}}
\@writefile{toc}{\contentsline {section}{\numberline {2.1}Examples}{11}{section.2.1}\protected@file@percent }
\newlabel{landscape_and_animals:examples}{{2.1}{11}{Examples}{section.2.1}{}}
\@writefile{toc}{\contentsline {section}{\numberline {2.2}The animals module}{12}{section.2.2}\protected@file@percent }
\newlabel{landscape_and_animals:the-animals-module}{{2.2}{12}{The animals module}{section.2.2}{}}
\@writefile{lot}{\contentsline {table}{\numberline {1}{\ignorespaces Description of greek letters}}{13}{table.2.1}\protected@file@percent }
\newlabel{landscape_and_animals:id1}{{1}{13}{The animals module}{table.2.1}{}}
\newlabel{landscape_and_animals:module-biosim.animals}{{2.2}{13}{The animals module}{section*.55}{}}
\newlabel{landscape_and_animals:biosim.animals.Animals}{{2.2}{13}{The animals module}{section*.56}{}}
\newlabel{landscape_and_animals:biosim.animals.Animals.fitness}{{2.2}{13}{The animals module}{section*.57}{}}
\newlabel{landscape_and_animals:biosim.animals.Animals.alive}{{2.2}{13}{The animals module}{section*.58}{}}
\newlabel{landscape_and_animals:biosim.animals.Animals.add_age}{{2.2}{14}{The animals module}{section*.59}{}}
\newlabel{landscape_and_animals:biosim.animals.Animals.death}{{2.2}{14}{The animals module}{section*.60}{}}
\newlabel{landscape_and_animals:biosim.animals.Animals.get_default_params}{{2.2}{14}{The animals module}{section*.61}{}}
\newlabel{landscape_and_animals:biosim.animals.Animals.give_birth}{{2.2}{14}{The animals module}{section*.62}{}}
\newlabel{landscape_and_animals:biosim.animals.Animals.set_animal_params}{{2.2}{14}{The animals module}{section*.63}{}}
\newlabel{landscape_and_animals:biosim.animals.Animals.update_fitness}{{2.2}{14}{The animals module}{section*.64}{}}
\newlabel{landscape_and_animals:biosim.animals.Animals.weight_loss}{{2.2}{14}{The animals module}{section*.65}{}}
\newlabel{landscape_and_animals:biosim.animals.Animals.will_animal_give_birth}{{2.2}{14}{The animals module}{section*.66}{}}
\newlabel{landscape_and_animals:biosim.animals.Animals.will_migrate}{{2.2}{14}{The animals module}{section*.67}{}}
\newlabel{landscape_and_animals:biosim.animals.Carnivore}{{2.2}{14}{The animals module}{section*.68}{}}
\newlabel{landscape_and_animals:biosim.animals.Carnivore.attempt_to_eat_herb}{{2.2}{14}{The animals module}{section*.69}{}}
\newlabel{landscape_and_animals:biosim.animals.Carnivore.update_weight_from_herbi}{{2.2}{14}{The animals module}{section*.70}{}}
\newlabel{landscape_and_animals:biosim.animals.Carnivore.will_carn_eat_herb}{{2.2}{14}{The animals module}{section*.71}{}}
\newlabel{landscape_and_animals:biosim.animals.Herbivore}{{2.2}{15}{The animals module}{section*.72}{}}
\newlabel{landscape_and_animals:biosim.animals.Herbivore.update_weight_from_fodder}{{2.2}{15}{The animals module}{section*.73}{}}
\@writefile{toc}{\contentsline {section}{\numberline {2.3}The landscape module}{15}{section.2.3}\protected@file@percent }
\newlabel{landscape_and_animals:the-landscape-module}{{2.3}{15}{The landscape module}{section.2.3}{}}
\newlabel{landscape_and_animals:module-biosim.landscape}{{2.3}{15}{The landscape module}{section*.74}{}}
\newlabel{landscape_and_animals:biosim.landscape.Desert}{{2.3}{15}{The landscape module}{section*.75}{}}
\newlabel{landscape_and_animals:biosim.landscape.Highland}{{2.3}{15}{The landscape module}{section*.76}{}}
\newlabel{landscape_and_animals:biosim.landscape.Landscape}{{2.3}{15}{The landscape module}{section*.77}{}}
\newlabel{landscape_and_animals:biosim.landscape.Landscape.herbivores}{{2.3}{16}{The landscape module}{section*.78}{}}
\newlabel{landscape_and_animals:biosim.landscape.Landscape.carnivores}{{2.3}{16}{The landscape module}{section*.79}{}}
\newlabel{landscape_and_animals:biosim.landscape.Landscape.fodder_available}{{2.3}{16}{The landscape module}{section*.80}{}}
\newlabel{landscape_and_animals:biosim.landscape.Landscape.max_fodder}{{2.3}{16}{The landscape module}{section*.81}{}}
\newlabel{landscape_and_animals:biosim.landscape.Landscape.add_animals}{{2.3}{16}{The landscape module}{section*.82}{}}
\newlabel{landscape_and_animals:biosim.landscape.Landscape.age_all_animals}{{2.3}{16}{The landscape module}{section*.83}{}}
\newlabel{landscape_and_animals:biosim.landscape.Landscape.annual_growth}{{2.3}{16}{The landscape module}{section*.84}{}}
\newlabel{landscape_and_animals:biosim.landscape.Landscape.feed_carnivores}{{2.3}{16}{The landscape module}{section*.85}{}}
\newlabel{landscape_and_animals:biosim.landscape.Landscape.feed_herbivores}{{2.3}{16}{The landscape module}{section*.86}{}}
\newlabel{landscape_and_animals:biosim.landscape.Landscape.give_birth_in_cell}{{2.3}{16}{The landscape module}{section*.87}{}}
\newlabel{landscape_and_animals:biosim.landscape.Landscape.kill_animals}{{2.3}{16}{The landscape module}{section*.88}{}}
\newlabel{landscape_and_animals:biosim.landscape.Landscape.migration_carn}{{2.3}{16}{The landscape module}{section*.89}{}}
\newlabel{landscape_and_animals:biosim.landscape.Landscape.migration_herb}{{2.3}{16}{The landscape module}{section*.90}{}}
\newlabel{landscape_and_animals:biosim.landscape.Landscape.remove_weight}{{2.3}{16}{The landscape module}{section*.91}{}}
\newlabel{landscape_and_animals:biosim.landscape.Landscape.sort_animals_by_fitness}{{2.3}{16}{The landscape module}{section*.92}{}}
\newlabel{landscape_and_animals:biosim.landscape.Lowland}{{2.3}{16}{The landscape module}{section*.93}{}}
\newlabel{landscape_and_animals:biosim.landscape.Water}{{2.3}{16}{The landscape module}{section*.94}{}}
\@writefile{toc}{\contentsline {chapter}{\numberline {3}Example of output}{19}{chapter.3}\protected@file@percent }
\@writefile{lof}{\addvspace {10\p@ }}
\@writefile{lot}{\addvspace {10\p@ }}
\newlabel{Output_examples:example-of-output}{{3}{19}{Example of output}{chapter.3}{}}
\newlabel{Output_examples::doc}{{3}{19}{Example of output}{chapter.3}{}}
\@writefile{toc}{\contentsline {section}{\numberline {3.1}Code}{19}{section.3.1}\protected@file@percent }
\newlabel{Output_examples:code}{{3.1}{19}{Code}{section.3.1}{}}
\@writefile{toc}{\contentsline {section}{\numberline {3.2}Video}{20}{section.3.2}\protected@file@percent }
\newlabel{Output_examples:video}{{3.2}{20}{Video}{section.3.2}{}}
\@writefile{toc}{\contentsline {chapter}{\numberline {4}Indices and tables}{21}{chapter.4}\protected@file@percent }
\@writefile{lof}{\addvspace {10\p@ }}
\@writefile{lot}{\addvspace {10\p@ }}
\newlabel{index:indices-and-tables}{{4}{21}{Indices and tables}{chapter.4}{}}
\@writefile{toc}{\contentsline {chapter}{Python Module Index}{23}{section*.95}\protected@file@percent }
\@writefile{toc}{\contentsline {chapter}{Index}{25}{section*.96}\protected@file@percent }
