\BOOKMARK [0][-]{chapter.1}{\376\377\000S\000i\000m\000u\000l\000a\000t\000i\000o\000n\000\040\000a\000n\000d\000\040\000I\000s\000l\000a\000n\000d}{}% 1
\BOOKMARK [1][-]{section.1.1}{\376\377\000E\000x\000a\000m\000p\000l\000e\000s}{chapter.1}% 2
\BOOKMARK [1][-]{section.1.2}{\376\377\000T\000h\000e\000\040\000s\000i\000m\000u\000l\000a\000t\000i\000o\000n\000\040\000m\000o\000d\000u\000l\000e}{chapter.1}% 3
\BOOKMARK [1][-]{section.1.3}{\376\377\000T\000h\000e\000\040\000i\000s\000l\000a\000n\000d\000\040\000m\000o\000d\000u\000l\000e}{chapter.1}% 4
\BOOKMARK [0][-]{chapter.2}{\376\377\000L\000a\000n\000d\000s\000c\000a\000p\000e\000\040\000a\000n\000d\000\040\000A\000n\000i\000m\000a\000l\000s}{}% 5
\BOOKMARK [1][-]{section.2.1}{\376\377\000E\000x\000a\000m\000p\000l\000e\000s}{chapter.2}% 6
\BOOKMARK [1][-]{section.2.2}{\376\377\000T\000h\000e\000\040\000a\000n\000i\000m\000a\000l\000s\000\040\000m\000o\000d\000u\000l\000e}{chapter.2}% 7
\BOOKMARK [1][-]{section.2.3}{\376\377\000T\000h\000e\000\040\000l\000a\000n\000d\000s\000c\000a\000p\000e\000\040\000m\000o\000d\000u\000l\000e}{chapter.2}% 8
\BOOKMARK [0][-]{chapter.3}{\376\377\000E\000x\000a\000m\000p\000l\000e\000\040\000o\000f\000\040\000o\000u\000t\000p\000u\000t}{}% 9
\BOOKMARK [1][-]{section.3.1}{\376\377\000C\000o\000d\000e}{chapter.3}% 10
\BOOKMARK [1][-]{section.3.2}{\376\377\000V\000i\000d\000e\000o}{chapter.3}% 11
\BOOKMARK [0][-]{chapter.4}{\376\377\000I\000n\000d\000i\000c\000e\000s\000\040\000a\000n\000d\000\040\000t\000a\000b\000l\000e\000s}{}% 12
\BOOKMARK [0][-]{section*.95}{\376\377\000P\000y\000t\000h\000o\000n\000\040\000M\000o\000d\000u\000l\000e\000\040\000I\000n\000d\000e\000x}{}% 13
\BOOKMARK [0][-]{section*.96}{\376\377\000I\000n\000d\000e\000x}{}% 14
