\babel@toc {english}{}
\contentsline {chapter}{\numberline {1}Simulation and Island}{3}{chapter.1}%
\contentsline {section}{\numberline {1.1}Examples}{3}{section.1.1}%
\contentsline {section}{\numberline {1.2}The simulation module}{5}{section.1.2}%
\contentsline {section}{\numberline {1.3}The island module}{8}{section.1.3}%
\contentsline {chapter}{\numberline {2}Landscape and Animals}{11}{chapter.2}%
\contentsline {section}{\numberline {2.1}Examples}{11}{section.2.1}%
\contentsline {section}{\numberline {2.2}The animals module}{12}{section.2.2}%
\contentsline {section}{\numberline {2.3}The landscape module}{15}{section.2.3}%
\contentsline {chapter}{\numberline {3}Example of output}{19}{chapter.3}%
\contentsline {section}{\numberline {3.1}Code}{19}{section.3.1}%
\contentsline {section}{\numberline {3.2}Video}{20}{section.3.2}%
\contentsline {chapter}{\numberline {4}Indices and tables}{21}{chapter.4}%
\contentsline {chapter}{Python Module Index}{23}{section*.95}%
\contentsline {chapter}{Index}{25}{section*.96}%
