# Fdb version 3
["makeindex islandbiosim.idx"] 1623861868 "islandbiosim.idx" "islandbiosim.ind" "islandbiosim" 1623861870
  "islandbiosim.idx" 1623861870 13846 5c5761b97729e54d47c809c76e9a211a "pdflatex"
  (generated)
  "islandbiosim.ilg"
  "islandbiosim.ind"
["pdflatex"] 1623861869 "islandbiosim.tex" "islandbiosim.pdf" "islandbiosim" 1623861870
  "/etc/texmf/web2c/texmf.cnf" 1611147281 475 c0e671620eb5563b2130f56340a5fde8 ""
  "/usr/share/texlive/texmf-dist/fonts/enc/dvips/base/8r.enc" 1165713224 4850 80dc9bab7f31fb78a000ccfed0e27cab ""
  "/usr/share/texlive/texmf-dist/fonts/map/fontname/texfonts.map" 1577235249 3524 cb3e574dea2d1052e39280babc910dc8 ""
  "/usr/share/texlive/texmf-dist/fonts/tfm/jknappen/ec/ecrm1000.tfm" 1136768653 3584 adb004a0c8e7c46ee66cad73671f37b4 ""
  "/usr/share/texlive/texmf-dist/fonts/tfm/public/amsfonts/cmextra/cmex7.tfm" 1246382020 1004 54797486969f23fa377b128694d548df ""
  "/usr/share/texlive/texmf-dist/fonts/tfm/public/amsfonts/symbols/msam10.tfm" 1246382020 916 f87d7c45f9c908e672703b83b72241a3 ""
  "/usr/share/texlive/texmf-dist/fonts/tfm/public/amsfonts/symbols/msam5.tfm" 1246382020 924 9904cf1d39e9767e7a3622f2a125a565 ""
  "/usr/share/texlive/texmf-dist/fonts/tfm/public/amsfonts/symbols/msam7.tfm" 1246382020 928 2dc8d444221b7a635bb58038579b861a ""
  "/usr/share/texlive/texmf-dist/fonts/tfm/public/amsfonts/symbols/msbm10.tfm" 1246382020 908 2921f8a10601f252058503cc6570e581 ""
  "/usr/share/texlive/texmf-dist/fonts/tfm/public/amsfonts/symbols/msbm5.tfm" 1246382020 940 75ac932a52f80982a9f8ea75d03a34cf ""
  "/usr/share/texlive/texmf-dist/fonts/tfm/public/amsfonts/symbols/msbm7.tfm" 1246382020 940 228d6584342e91276bf566bcf9716b83 ""
  "/usr/share/texlive/texmf-dist/fonts/tfm/public/cm/cmex10.tfm" 1136768653 992 662f679a0b3d2d53c1b94050fdaa3f50 ""
  "/usr/share/texlive/texmf-dist/fonts/tfm/public/cm/cmmi12.tfm" 1136768653 1524 4414a8315f39513458b80dfc63bff03a ""
  "/usr/share/texlive/texmf-dist/fonts/tfm/public/cm/cmr12.tfm" 1136768653 1288 655e228510b4c2a1abe905c368440826 ""
  "/usr/share/texlive/texmf-dist/fonts/tfm/public/cm/cmr17.tfm" 1136768653 1292 296a67155bdbfc32aa9c636f21e91433 ""
  "/usr/share/texlive/texmf-dist/fonts/tfm/public/cm/cmsy10.tfm" 1136768653 1124 6c73e740cf17375f03eec0ee63599741 ""
  "/usr/share/texlive/texmf-dist/fonts/tfm/public/txfonts/rtcxsl.tfm" 1136768653 1556 6839f760c7ccf5ed87b9284aa8d08287 ""
  "/usr/share/texlive/texmf-dist/fonts/tfm/public/txfonts/rtxptmr.tfm" 1136768653 4452 0fd0a792eaab7113e4d4f1b941ff0367 ""
  "/usr/share/texlive/texmf-dist/fonts/tfm/public/txfonts/rtxptmro.tfm" 1136768653 4660 1e82d17cfff3320dd793f61bbdea044f ""
  "/usr/share/texlive/texmf-dist/fonts/tfm/public/txfonts/t1xbtt.tfm" 1136768653 1436 f00b2a275be56a8355f5c3b07a5a7a4c ""
  "/usr/share/texlive/texmf-dist/fonts/tfm/public/txfonts/t1xtt.tfm" 1136768653 1384 8943063000d26272532f74ca134dfecd ""
  "/usr/share/texlive/texmf-dist/fonts/tfm/public/txfonts/t1xttsl.tfm" 1136768653 1624 fb8f48c6308ace0a799f9278aba03e18 ""
  "/usr/share/texlive/texmf-dist/fonts/tfm/public/txfonts/tcxsl.tfm" 1136768653 1680 1b5370f9965e05efeedc424f97016c00 ""
  "/usr/share/texlive/texmf-dist/fonts/tfm/public/txfonts/tcxtt.tfm" 1136768653 1292 b1fa6b76e852700625b1941c32e1e42e ""
  "/usr/share/texlive/texmf-dist/fonts/type1/public/amsfonts/cm/cmex10.pfb" 1248133631 30251 6afa5cb1d0204815a708a080681d4674 ""
  "/usr/share/texlive/texmf-dist/fonts/type1/public/amsfonts/cm/cmmi10.pfb" 1248133631 36299 5f9df58c2139e7edcf37c8fca4bd384d ""
  "/usr/share/texlive/texmf-dist/fonts/type1/public/amsfonts/cm/cmmi5.pfb" 1248133631 37912 77d683123f92148345f3fc36a38d9ab1 ""
  "/usr/share/texlive/texmf-dist/fonts/type1/public/amsfonts/cm/cmmi7.pfb" 1248133631 36281 c355509802a035cadc5f15869451dcee ""
  "/usr/share/texlive/texmf-dist/fonts/type1/public/amsfonts/cm/cmr10.pfb" 1248133631 35752 024fb6c41858982481f6968b5fc26508 ""
  "/usr/share/texlive/texmf-dist/fonts/type1/public/amsfonts/cm/cmr5.pfb" 1248133631 31809 8670ca339bf94e56da1fc21c80635e2a ""
  "/usr/share/texlive/texmf-dist/fonts/type1/public/amsfonts/cm/cmr7.pfb" 1248133631 32762 224316ccc9ad3ca0423a14971cfa7fc1 ""
  "/usr/share/texlive/texmf-dist/fonts/type1/public/amsfonts/cm/cmsy10.pfb" 1248133631 32569 5e5ddc8df908dea60932f3c484a54c0d ""
  "/usr/share/texlive/texmf-dist/fonts/type1/public/amsfonts/cm/cmsy7.pfb" 1248133631 32716 08e384dc442464e7285e891af9f45947 ""
  "/usr/share/texlive/texmf-dist/fonts/type1/public/txfonts/t1xbtt.pfb" 1136849748 26580 8886cc7827569e05fd10df25f221aef6 ""
  "/usr/share/texlive/texmf-dist/fonts/type1/public/txfonts/t1xtt.pfb" 1136849748 26301 f08b3c26ea42c3177a262c2ac37d6a91 ""
  "/usr/share/texlive/texmf-dist/fonts/type1/public/txfonts/tcxtt.pfb" 1136849748 19223 eef9d7a2591262b80fbbebb9e94dc374 ""
  "/usr/share/texlive/texmf-dist/fonts/type1/urw/times/utmr8a.pfb" 1136849748 46026 6dab18b61c907687b520c72847215a68 ""
  "/usr/share/texlive/texmf-dist/fonts/vf/public/txfonts/tcxsl.vf" 1136768653 1016 4e04d2a05c869fe9fcb3048945c37102 ""
  "/usr/share/texlive/texmf-dist/tex/context/base/mkii/supp-pdf.mkii" 1461363279 71627 94eb9990bed73c364d7f53f960cc8c5b ""
  "/usr/share/texlive/texmf-dist/tex/generic/atbegshi/atbegshi.sty" 1575674566 24708 5584a51a7101caf7e6bbf1fc27d8f7b1 ""
  "/usr/share/texlive/texmf-dist/tex/generic/babel-english/english.ldf" 1496785618 7008 9ff5fdcc865b01beca2b0fe4a46231d4 ""
  "/usr/share/texlive/texmf-dist/tex/generic/babel/babel.def" 1581719732 87344 ec128793fb5196bbcc1741e5366ddac1 ""
  "/usr/share/texlive/texmf-dist/tex/generic/babel/babel.sty" 1581719732 18844 909add1631725af40d27125357ea816e ""
  "/usr/share/texlive/texmf-dist/tex/generic/babel/switch.def" 1581719732 15529 e761dc130df77f0ce9717a25d1b52a95 ""
  "/usr/share/texlive/texmf-dist/tex/generic/babel/txtbabel.def" 1580769195 5220 42a6518b499d20676051f269c61f4d9a ""
  "/usr/share/texlive/texmf-dist/tex/generic/bigintcalc/bigintcalc.sty" 1576625341 40635 c40361e206be584d448876bba8a64a3b ""
  "/usr/share/texlive/texmf-dist/tex/generic/bitset/bitset.sty" 1576016050 33961 6b5c75130e435b2bfdb9f480a09a39f9 ""
  "/usr/share/texlive/texmf-dist/tex/generic/etexcmds/etexcmds.sty" 1576625273 7734 b98cbb34c81f667027c1e3ebdbfce34b ""
  "/usr/share/texlive/texmf-dist/tex/generic/gettitlestring/gettitlestring.sty" 1576625223 8371 9d55b8bd010bc717624922fb3477d92e ""
  "/usr/share/texlive/texmf-dist/tex/generic/iftex/iftex.sty" 1573336935 6902 30fdaf7dc5636b8e3afa306210c45cae ""
  "/usr/share/texlive/texmf-dist/tex/generic/iftex/ifvtex.sty" 1572645307 1057 525c2192b5febbd8c1f662c9468335bb ""
  "/usr/share/texlive/texmf-dist/tex/generic/infwarerr/infwarerr.sty" 1575499628 8356 7bbb2c2373aa810be568c29e333da8ed ""
  "/usr/share/texlive/texmf-dist/tex/generic/intcalc/intcalc.sty" 1576625065 31769 002a487f55041f8e805cfbf6385ffd97 ""
  "/usr/share/texlive/texmf-dist/tex/generic/kvdefinekeys/kvdefinekeys.sty" 1576878844 5412 d5a2436094cd7be85769db90f29250a6 ""
  "/usr/share/texlive/texmf-dist/tex/generic/kvsetkeys/kvsetkeys.sty" 1576624944 13807 952b0226d4efca026f0e19dd266dcc22 ""
  "/usr/share/texlive/texmf-dist/tex/generic/ltxcmds/ltxcmds.sty" 1576624883 18552 1e1cc7b75da0dfaacce7cdcb27d306bf ""
  "/usr/share/texlive/texmf-dist/tex/generic/pdfescape/pdfescape.sty" 1576015897 19007 15924f7228aca6c6d184b115f4baa231 ""
  "/usr/share/texlive/texmf-dist/tex/generic/uniquecounter/uniquecounter.sty" 1576624663 7008 f92eaa0a3872ed622bbf538217cd2ab7 ""
  "/usr/share/texlive/texmf-dist/tex/latex/amsfonts/amsfonts.sty" 1359763108 5949 3f3fd50a8cc94c3d4cbf4fc66cd3df1c ""
  "/usr/share/texlive/texmf-dist/tex/latex/amsfonts/amssymb.sty" 1359763108 13829 94730e64147574077f8ecfea9bb69af4 ""
  "/usr/share/texlive/texmf-dist/tex/latex/amsfonts/umsa.fd" 1359763108 961 6518c6525a34feb5e8250ffa91731cff ""
  "/usr/share/texlive/texmf-dist/tex/latex/amsfonts/umsb.fd" 1359763108 961 d02606146ba5601b5645f987c92e6193 ""
  "/usr/share/texlive/texmf-dist/tex/latex/amsmath/amsbsy.sty" 1523134290 2211 ca7ce284ab93c8eecdc6029dc5ccbd73 ""
  "/usr/share/texlive/texmf-dist/tex/latex/amsmath/amsgen.sty" 1523134290 4161 7f6eb9092061a11f87d08ed13515b48d ""
  "/usr/share/texlive/texmf-dist/tex/latex/amsmath/amsmath.sty" 1580683321 85660 baee036978c7a91f4e2bba43f05e5945 ""
  "/usr/share/texlive/texmf-dist/tex/latex/amsmath/amsopn.sty" 1523134290 4116 32e6abd27229755a83a8b7f18e583890 ""
  "/usr/share/texlive/texmf-dist/tex/latex/amsmath/amstext.sty" 1523134290 2432 8ff93b1137020e8f21930562a874ae66 ""
  "/usr/share/texlive/texmf-dist/tex/latex/atveryend/atveryend.sty" 1576191570 19336 ce7ae9438967282886b3b036cfad1e4d ""
  "/usr/share/texlive/texmf-dist/tex/latex/auxhook/auxhook.sty" 1576625391 3935 57aa3c3e203a5c2effb4d2bd2efbc323 ""
  "/usr/share/texlive/texmf-dist/tex/latex/base/alltt.sty" 1580683321 3140 3b501b609b11ff7320ce1a19dbac0e3b ""
  "/usr/share/texlive/texmf-dist/tex/latex/base/fontenc.sty" 1581632200 4947 0c2888dd88121ae675fc6e82213623ba ""
  "/usr/share/texlive/texmf-dist/tex/latex/base/inputenc.sty" 1580683321 5050 8933a39ad74377accd18991c5eb90c58 ""
  "/usr/share/texlive/texmf-dist/tex/latex/base/makeidx.sty" 1580683321 1940 dd4f2aa11c89855a3c47d09758782ba5 ""
  "/usr/share/texlive/texmf-dist/tex/latex/base/report.cls" 1580683321 23082 a0e9a5941c744eda6abe56770037a201 ""
  "/usr/share/texlive/texmf-dist/tex/latex/base/size10.clo" 1580683321 8446 9874cccac5fee462272c582807dbbf56 ""
  "/usr/share/texlive/texmf-dist/tex/latex/base/textcomp.sty" 1581112666 2821 2c0928feafd5527387e29a1af774d030 ""
  "/usr/share/texlive/texmf-dist/tex/latex/capt-of/capt-of.sty" 1264379041 1311 063f8536a047a2d9cb1803321f793f37 ""
  "/usr/share/texlive/texmf-dist/tex/latex/cmap/cmap.sty" 1215522782 2883 427a7f7cb58418a0394dbd85c80668f6 ""
  "/usr/share/texlive/texmf-dist/tex/latex/cmap/ot1.cmap" 1177721415 1207 4e0d96772f0d338847cbfb4eca683c81 ""
  "/usr/share/texlive/texmf-dist/tex/latex/cmap/t1.cmap" 1215522782 1938 beaa4a8467aa0074076e0e19f2992e29 ""
  "/usr/share/texlive/texmf-dist/tex/latex/epstopdf-pkg/epstopdf-base.sty" 1579991033 13886 d1306dcf79a944f6988e688c1785f9ce ""
  "/usr/share/texlive/texmf-dist/tex/latex/fancyhdr/fancyhdr.sty" 1548974385 11128 a53805799bebfed6358fc1658a18e41f ""
  "/usr/share/texlive/texmf-dist/tex/latex/fancyvrb/fancyvrb.sty" 1578950756 43158 eb6545ca94a288335910480ca6755b55 ""
  "/usr/share/texlive/texmf-dist/tex/latex/float/float.sty" 1137110151 6749 16d2656a1984957e674b149555f1ea1d ""
  "/usr/share/texlive/texmf-dist/tex/latex/fncychap/fncychap.sty" 1292029257 19488 fdd52eb173b3197d748e1ec25acb042f ""
  "/usr/share/texlive/texmf-dist/tex/latex/framed/framed.sty" 1338588508 22449 7ec15c16d0d66790f28e90343c5434a3 ""
  "/usr/share/texlive/texmf-dist/tex/latex/geometry/geometry.sty" 1578002852 41601 9cf6c5257b1bc7af01a58859749dd37a ""
  "/usr/share/texlive/texmf-dist/tex/latex/graphics-cfg/color.cfg" 1459978653 1213 620bba36b25224fa9b7e1ccb4ecb76fd ""
  "/usr/share/texlive/texmf-dist/tex/latex/graphics-cfg/graphics.cfg" 1465944070 1224 978390e9c2234eab29404bc21b268d1e ""
  "/usr/share/texlive/texmf-dist/tex/latex/graphics-def/pdftex.def" 1515537368 17334 520b9b85ad8a2a48eda3f643e27a5179 ""
  "/usr/share/texlive/texmf-dist/tex/latex/graphics/graphics.sty" 1580683321 16932 04729abe63b66ec59ea56edcd722b058 ""
  "/usr/share/texlive/texmf-dist/tex/latex/graphics/graphicx.sty" 1580683321 9067 1b996612394a52e1efe89c8bfe8a5892 ""
  "/usr/share/texlive/texmf-dist/tex/latex/graphics/keyval.sty" 1580683321 2590 e3b24ff953e5b58d924f163d25380312 ""
  "/usr/share/texlive/texmf-dist/tex/latex/graphics/trig.sty" 1580683321 3976 d7fa7d81d2870d509d25b17d0245e735 ""
  "/usr/share/texlive/texmf-dist/tex/latex/hycolor/hycolor.sty" 1580250785 17914 4c28a13fc3d975e6e81c9bea1d697276 ""
  "/usr/share/texlive/texmf-dist/tex/latex/hyperref/hpdftex.def" 1579642962 50630 3d9728faf8630190cf601ce2cbe470d9 ""
  "/usr/share/texlive/texmf-dist/tex/latex/hyperref/hyperref.sty" 1579642962 238752 60dd338d71b6a4ab2192131f73dc908b ""
  "/usr/share/texlive/texmf-dist/tex/latex/hyperref/nameref.sty" 1579642962 13244 0070bcab7b5a88187847128d22faf4d8 ""
  "/usr/share/texlive/texmf-dist/tex/latex/hyperref/pd1enc.def" 1579642962 14134 32b36577d311ddb6522413c7581ee968 ""
  "/usr/share/texlive/texmf-dist/tex/latex/hyperref/puenc.def" 1579642962 122447 2f3bff59bea0a0fa94e11cc69e0f3066 ""
  "/usr/share/texlive/texmf-dist/tex/latex/kvoptions/kvoptions.sty" 1575152344 22520 c4c2dab203104295e1e618be7e5c0f5b ""
  "/usr/share/texlive/texmf-dist/tex/latex/l3backend/l3backend-pdfmode.def" 1580854751 25404 9d60f463a00d154207ec0048dee27cf0 ""
  "/usr/share/texlive/texmf-dist/tex/latex/latexconfig/epstopdf-sys.cfg" 1279039959 678 4792914a8f45be57bb98413425e4c7af ""
  "/usr/share/texlive/texmf-dist/tex/latex/letltxmacro/letltxmacro.sty" 1575499565 5766 13a9e8766c47f30327caf893ece86ac8 ""
  "/usr/share/texlive/texmf-dist/tex/latex/mmap/oml.cmap" 1215649417 1866 c1c12138091b4a8edd4a24a940e6f792 ""
  "/usr/share/texlive/texmf-dist/tex/latex/mmap/oms.cmap" 1215649417 2370 3b1f71b14b974f07cef532db09ae9ee0 ""
  "/usr/share/texlive/texmf-dist/tex/latex/mmap/omx.cmap" 1215649417 3001 252c8ca42b06a22cb1a11c0e47790c6e ""
  "/usr/share/texlive/texmf-dist/tex/latex/needspace/needspace.sty" 1364856750 852 0e34dbb72efc69fa07602405ad95585e ""
  "/usr/share/texlive/texmf-dist/tex/latex/oberdiek/hypcap.sty" 1575152444 3822 b53c749cd81352b4679a35b0dafefb95 ""
  "/usr/share/texlive/texmf-dist/tex/latex/parskip/parskip-2001-04-09.sty" 1536789184 2757 ea00cb4f4e9abc702916f74d3812ef67 ""
  "/usr/share/texlive/texmf-dist/tex/latex/parskip/parskip.sty" 1579802043 4151 bd592f37b856f80e699388b77e72d753 ""
  "/usr/share/texlive/texmf-dist/tex/latex/pdftexcmds/pdftexcmds.sty" 1574631863 19963 36fd8e818f9f0f32e2db8413d4970122 ""
  "/usr/share/texlive/texmf-dist/tex/latex/refcount/refcount.sty" 1576624809 9878 9e94e8fa600d95f9c7731bb21dfb67a4 ""
  "/usr/share/texlive/texmf-dist/tex/latex/rerunfilecheck/rerunfilecheck.sty" 1575674187 9715 b051d5b493d9fe5f4bc251462d039e5f ""
  "/usr/share/texlive/texmf-dist/tex/latex/tabulary/tabulary.sty" 1403566480 13791 8c83287d79183c3bf58fd70871e8a70b ""
  "/usr/share/texlive/texmf-dist/tex/latex/titlesec/titlesec.sty" 1571259403 48596 2b6a95da931c07a430b1a61904aaa42d ""
  "/usr/share/texlive/texmf-dist/tex/latex/tools/array.sty" 1580683321 12560 ce3f59ceae9d9a27bfe037d6bf1d903c ""
  "/usr/share/texlive/texmf-dist/tex/latex/tools/longtable.sty" 1580683321 12133 b1e3e65b69714dbfcc5e6c0b19d66b50 ""
  "/usr/share/texlive/texmf-dist/tex/latex/tools/multicol.sty" 1580683321 31532 04852e45d7c17cb384689d2f83b628d3 ""
  "/usr/share/texlive/texmf-dist/tex/latex/txfonts/t1txtt.fd" 1137111002 1324 7b6c95370a64cd8c7620cbefefb53dba ""
  "/usr/share/texlive/texmf-dist/tex/latex/txfonts/ts1txtt.fd" 1137111002 1333 8a39a5a2c80ffd81756250fe53398bff ""
  "/usr/share/texlive/texmf-dist/tex/latex/upquote/upquote.sty" 1334873510 1048 517e01cde97c1c0baf72e69d43aa5a2e ""
  "/usr/share/texlive/texmf-dist/tex/latex/url/url.sty" 1388531844 12796 8edb7d69a20b857904dd0ea757c14ec9 ""
  "/usr/share/texlive/texmf-dist/tex/latex/varwidth/varwidth.sty" 1238697683 10894 d359a13923460b2a73d4312d613554c8 ""
  "/usr/share/texlive/texmf-dist/tex/latex/wrapfig/wrapfig.sty" 1137111090 26220 3701aebf80ccdef248c0c20dd062fea9 ""
  "/usr/share/texlive/texmf-dist/tex/latex/xcolor/xcolor.sty" 1463002160 55589 34128738f682d033422ca125f82e5d62 ""
  "/usr/share/texlive/texmf-dist/web2c/texmf.cnf" 1581979058 38841 ce3692aa899bb693b90b87eaa5d4d84e ""
  "/usr/share/texmf/fonts/enc/dvips/tex-gyre/q-ec.enc" 1529098226 2457 aaabbccba4df2a7f7371410ee4e075a3 ""
  "/usr/share/texmf/fonts/enc/dvips/tex-gyre/q-ts1.enc" 1529098226 3124 3813fd4c981d99822890a2861b0d274c ""
  "/usr/share/texmf/fonts/tfm/public/tex-gyre/ec-qhvb.tfm" 1480098718 11796 b7bc3db132e822d2872ea50ba8fa7cc0 ""
  "/usr/share/texmf/fonts/tfm/public/tex-gyre/ec-qhvbi.tfm" 1480098718 12396 e65c2800bb94ee6ae6e4fdf18f68fa2e ""
  "/usr/share/texmf/fonts/tfm/public/tex-gyre/ec-qhvr.tfm" 1480098718 12084 374c5b7e91efcc10472ab8e61f66d36b ""
  "/usr/share/texmf/fonts/tfm/public/tex-gyre/ec-qtmb.tfm" 1480098718 11484 431d8013ae6931f9326b9a0f492d2a5e ""
  "/usr/share/texmf/fonts/tfm/public/tex-gyre/ec-qtmr.tfm" 1480098718 11504 0b76b46eb90907e684139293e03c466a ""
  "/usr/share/texmf/fonts/tfm/public/tex-gyre/ec-qtmri.tfm" 1480098718 11356 da1519f442d8a49b81c86cbaf25ef79f ""
  "/usr/share/texmf/fonts/tfm/public/tex-gyre/ts1-qtmr.tfm" 1480098718 1600 20cdf11dab97d5d39e847571f9314407 ""
  "/usr/share/texmf/fonts/tfm/public/tex-gyre/ts1-qtmri.tfm" 1480098718 1744 236018a0ac3444bdc221f881182030d8 ""
  "/usr/share/texmf/fonts/type1/public/tex-gyre/qhvb.pfb" 1480098745 112164 176018dd42fcc60204173fa10e357da5 ""
  "/usr/share/texmf/fonts/type1/public/tex-gyre/qhvbi.pfb" 1480098745 104926 77ce2f0433ac7fd33dbe9968d127e4fb ""
  "/usr/share/texmf/fonts/type1/public/tex-gyre/qhvr.pfb" 1480098745 110045 c159829aa6d7d99f1777bb40c90b8157 ""
  "/usr/share/texmf/fonts/type1/public/tex-gyre/qtmb.pfb" 1480098745 131776 4be3e220f990dc716f91bb7965c09237 ""
  "/usr/share/texmf/fonts/type1/public/tex-gyre/qtmr.pfb" 1480098745 133302 8dca243a80ecf4cfe00077d4bd995bd7 ""
  "/usr/share/texmf/fonts/type1/public/tex-gyre/qtmri.pfb" 1480098745 129669 aaf12ebd0b807d452087fc34bde5bd7d ""
  "/usr/share/texmf/tex/latex/tex-gyre/t1qhv.fd" 1480098840 2378 01e898189bf06467f2f6fe33decbff09 ""
  "/usr/share/texmf/tex/latex/tex-gyre/t1qtm.fd" 1480098840 1638 7cc855d1dc7c12c1858f209a4ef88c4a ""
  "/usr/share/texmf/tex/latex/tex-gyre/tgheros.sty" 1480098840 2130 2b41e80713f78d339e74c19d96fe70a1 ""
  "/usr/share/texmf/tex/latex/tex-gyre/tgtermes.sty" 1480098840 2211 af9b7d12507105a58a3e8e926996b827 ""
  "/usr/share/texmf/tex/latex/tex-gyre/ts1qtm.fd" 1480098840 1160 de7b1cf70edab73c9f1704df2a9fdbbd ""
  "/usr/share/texmf/web2c/texmf.cnf" 1581979058 38841 ce3692aa899bb693b90b87eaa5d4d84e ""
  "/var/lib/texmf/fonts/map/pdftex/updmap/pdftex.map" 1611148938 4770781 1ed1abab22da9c3e2cc82e4db562318b ""
  "/var/lib/texmf/web2c/pdftex/pdflatex.fmt" 1611148969 8264319 5b5adac7350271abb2fd200982f1f0bd ""
  "Rossum_island.png" 1623840985 15688 84810c2202d52be967ef7ff140a25427 ""
  "islandbiosim.aux" 1623861870 15377 9bf45c27b508f81b05a5963ded72e15d "pdflatex"
  "islandbiosim.ind" 1623861868 9711 1bde7d2775c2b8a365c4cb4c01696d8b "makeindex islandbiosim.idx"
  "islandbiosim.out" 1623861870 1763 d863db046c375f157e563a975fc82afe "pdflatex"
  "islandbiosim.tex" 1623861867 94067 8ba83e69b5caf36a5aa1739cc57032a9 ""
  "islandbiosim.toc" 1623861870 1025 a189fab0ce0f0ec3b7ba41a8163db1d0 "pdflatex"
  "sphinx.sty" 1620777534 13210 1fc7fddaf4a9dba457504448864afe1f ""
  "sphinxhighlight.sty" 1623861867 6679 76d10c62e0f0661410b46f5db6118e26 ""
  "sphinxlatexadmonitions.sty" 1620777534 6238 2d867d769abf3f72abc17ef52adff78b ""
  "sphinxlatexgraphics.sty" 1620777534 4840 a9578332b6f3b35e198751fb632c9b79 ""
  "sphinxlatexindbibtoc.sty" 1620777534 2066 b93f8504d02f6337fde3074b179de55e ""
  "sphinxlatexlists.sty" 1620777534 3541 cdbe977296704a7f4febf62b72e20a0b ""
  "sphinxlatexliterals.sty" 1620777534 35106 36d90f2f3a5de04ed4009f6607e82334 ""
  "sphinxlatexnumfig.sty" 1620777534 4532 3633caf84afa1a98e1a060b7868202bb ""
  "sphinxlatexobjects.sty" 1620777534 7270 a81899b12ca256f0a3b27e2783aa2cde ""
  "sphinxlatexshadowbox.sty" 1620777534 3885 01355157c5580b34ec18031ea7a5e0e0 ""
  "sphinxlatexstyleheadings.sty" 1620777534 3253 144b82f37e9d225d888cce45c19b8ed4 ""
  "sphinxlatexstylepage.sty" 1620777534 3064 abce6c3018a84afee0afb08a431944ea ""
  "sphinxlatexstyletext.sty" 1620777534 5771 a578900e23c0331bf3e01507feb96320 ""
  "sphinxlatextables.sty" 1620777534 21848 2827eb0b11b99b185a8b77317d3e131c ""
  "sphinxmanual.cls" 1620777534 4236 124cd90deb92742b5d3922bfc2cd70c0 ""
  "sphinxmessages.sty" 1623861867 745 3f5fcd6cdd7964ed608767954a8ced6f ""
  "sphinxoptionsgeometry.sty" 1620777534 2061 47bb34b8ed8a78823eb0c886abfb9f4d ""
  "sphinxoptionshyperref.sty" 1620777534 1093 22dd608777751296c61a93174b0f4bb8 ""
  "sphinxpackagefootnote.sty" 1620777534 13248 e2c77871396275ccf592403f8130f6f2 ""
  (generated)
  "islandbiosim.toc"
  "islandbiosim.out"
  "islandbiosim.log"
  "islandbiosim.pdf"
  "islandbiosim.aux"
  "islandbiosim.idx"
