\relax 
\@nameuse{bbl@beforestart}
\babel@aux{english}{}
\@writefile{toc}{\contentsline {section}{Work distriubtion}{1}\protected@file@percent }
\@writefile{toc}{\contentsline {section}{PEP8}{2}\protected@file@percent }
\@writefile{toc}{\contentsline {section}{Pytest INTERFACE}{3}\protected@file@percent }
\@writefile{toc}{\contentsline {section}{Check scripts}{4}\protected@file@percent }
\@writefile{toc}{\contentsline {subsection}{mono}{4}\protected@file@percent }
\@writefile{toc}{\contentsline {subsection}{sim\_rerun}{4}\protected@file@percent }
\@writefile{toc}{\contentsline {subsection}{migration\_symm}{4}\protected@file@percent }
\@writefile{toc}{\contentsline {subsection}{migration\_symm\_force}{5}\protected@file@percent }
\@writefile{toc}{\contentsline {subsection}{sim}{5}\protected@file@percent }
\@writefile{toc}{\contentsline {subsection}{sim\_default}{5}\protected@file@percent }
\@writefile{toc}{\contentsline {section}{Total time: 285 seconds}{6}\protected@file@percent }
\@writefile{toc}{\contentsline {section}{Pytests}{7}\protected@file@percent }
\@writefile{toc}{\contentsline {section}{Build package}{8}\protected@file@percent }
\@writefile{toc}{\contentsline {section}{Build documentation}{9}\protected@file@percent }
